0.000000 0.000000
0.001000 0.000007
0.002000 0.000028
0.003000 0.000065
0.004000 0.000119
0.005000 0.000191
0.006000 0.000284
0.007000 0.000397
0.008000 0.000532
0.009000 0.000689
0.010000 0.000869
0.011000 0.001072
0.012000 0.001298
0.013000 0.001548
0.014000 0.001821
0.015000 0.002116
0.016000 0.002435
0.017000 0.002775
0.018000 0.003136
0.019000 0.003516
0.020000 0.003916
0.021000 0.004333
0.022000 0.004765
0.023000 0.005212
0.024000 0.005671
0.025000 0.006140
0.026000 0.006617
0.027000 0.007100
0.028000 0.007586
0.029000 0.008073
0.030000 0.008558
0.031000 0.009038
0.032000 0.009511
0.033000 0.009972
0.034000 0.010420
0.035000 0.010850
0.036000 0.011260
0.037000 0.011646
0.038000 0.012004
0.039000 0.012332
0.040000 0.012626
0.041000 0.012882
0.042000 0.013098
0.043000 0.013268
0.044000 0.013391
0.045000 0.013462
0.046000 0.013478
0.047000 0.013436
0.048000 0.013333
0.049000 0.013165
0.050000 0.012929
0.051000 0.012623
0.052000 0.012244
0.053000 0.011788
0.054000 0.011253
0.055000 0.010638
0.056000 0.009939
0.057000 0.009155
0.058000 0.008284
0.059000 0.007324
0.060000 0.006274
0.061000 0.005132
0.062000 0.003898
0.063000 0.002571
0.064000 0.001151
0.065000 -0.000364
0.066000 -0.001972
0.067000 -0.003673
0.068000 -0.005468
0.069000 -0.007353
0.070000 -0.009330
0.071000 -0.011396
0.072000 -0.013549
0.073000 -0.015787
0.074000 -0.018108
0.075000 -0.020509
0.076000 -0.022987
0.077000 -0.025539
0.078000 -0.028161
0.079000 -0.030850
0.080000 -0.033600
0.081000 -0.036408
0.082000 -0.039268
0.083000 -0.042175
0.084000 -0.045125
0.085000 -0.048112
0.086000 -0.051128
0.087000 -0.054169
0.088000 -0.057228
0.089000 -0.060299
0.090000 -0.063373
0.091000 -0.066445
0.092000 -0.069506
0.093000 -0.072550
0.094000 -0.075569
0.095000 -0.078554
0.096000 -0.081498
0.097000 -0.084393
0.098000 -0.087230
0.099000 -0.090001
0.100000 -0.092698
0.101000 -0.095312
0.102000 -0.097835
0.103000 -0.100258
0.104000 -0.102572
0.105000 -0.104770
0.106000 -0.106842
0.107000 -0.108780
0.108000 -0.110575
0.109000 -0.112221
0.110000 -0.113707
0.111000 -0.115027
0.112000 -0.116172
0.113000 -0.117134
0.114000 -0.117907
0.115000 -0.118483
0.116000 -0.118855
0.117000 -0.119016
0.118000 -0.118959
0.119000 -0.118680
0.120000 -0.118171
0.121000 -0.117427
0.122000 -0.116444
0.123000 -0.115216
0.124000 -0.113738
0.125000 -0.112008
0.126000 -0.110022
0.127000 -0.107776
0.128000 -0.105268
0.129000 -0.102497
0.130000 -0.099459
0.131000 -0.096155
0.132000 -0.092583
0.133000 -0.088743
0.134000 -0.084637
0.135000 -0.080265
0.136000 -0.075629
0.137000 -0.070730
0.138000 -0.065573
0.139000 -0.060159
0.140000 -0.054492
0.141000 -0.048579
0.142000 -0.042422
0.143000 -0.036029
0.144000 -0.029405
0.145000 -0.022557
0.146000 -0.015492
0.147000 -0.008219
0.148000 -0.000746
0.149000 0.006917
0.150000 0.014762
0.151000 0.022778
0.152000 0.030954
0.153000 0.039279
0.154000 0.047742
0.155000 0.056329
0.156000 0.065028
0.157000 0.073826
0.158000 0.082709
0.159000 0.091663
0.160000 0.100673
0.161000 0.109726
0.162000 0.118805
0.163000 0.127894
0.164000 0.136979
0.165000 0.146042
0.166000 0.155068
0.167000 0.164039
0.168000 0.172939
0.169000 0.181751
0.170000 0.190456
0.171000 0.199039
0.172000 0.207482
0.173000 0.215767
0.174000 0.223876
0.175000 0.231792
0.176000 0.239499
0.177000 0.246977
0.178000 0.254211
0.179000 0.261182
0.180000 0.267875
0.181000 0.274271
0.182000 0.280356
0.183000 0.286112
0.184000 0.291524
0.185000 0.296576
0.186000 0.301253
0.187000 0.305541
0.188000 0.309425
0.189000 0.312891
0.190000 0.315926
0.191000 0.318517
0.192000 0.320653
0.193000 0.322322
0.194000 0.323512
0.195000 0.324214
0.196000 0.324418
0.197000 0.324115
0.198000 0.323298
0.199000 0.321959
0.200000 0.320091
0.201000 0.317690
0.202000 0.314750
0.203000 0.311267
0.204000 0.307238
0.205000 0.302661
0.206000 0.297536
0.207000 0.291861
0.208000 0.285638
0.209000 0.278867
0.210000 0.271552
0.211000 0.263697
0.212000 0.255305
0.213000 0.246382
0.214000 0.236935
0.215000 0.226972
0.216000 0.216500
0.217000 0.205529
0.218000 0.194070
0.219000 0.182135
0.220000 0.169735
0.221000 0.156883
0.222000 0.143596
0.223000 0.129887
0.224000 0.115772
0.225000 0.101270
0.226000 0.086397
0.227000 0.071173
0.228000 0.055617
0.229000 0.039749
0.230000 0.023592
0.231000 0.007167
0.232000 -0.009504
0.233000 -0.026396
0.234000 -0.043486
0.235000 -0.060749
0.236000 -0.078159
0.237000 -0.095691
0.238000 -0.113319
0.239000 -0.131014
0.240000 -0.148751
0.241000 -0.166500
0.242000 -0.184235
0.243000 -0.201926
0.244000 -0.219545
0.245000 -0.237063
0.246000 -0.254451
0.247000 -0.271679
0.248000 -0.288718
0.249000 -0.305540
0.250000 -0.322114
0.251000 -0.338412
0.252000 -0.354403
0.253000 -0.370060
0.254000 -0.385354
0.255000 -0.400255
0.256000 -0.414737
0.257000 -0.428771
0.258000 -0.442329
0.259000 -0.455386
0.260000 -0.467915
0.261000 -0.479890
0.262000 -0.491285
0.263000 -0.502077
0.264000 -0.512242
0.265000 -0.521756
0.266000 -0.530598
0.267000 -0.538747
0.268000 -0.546182
0.269000 -0.552883
0.270000 -0.558832
0.271000 -0.564013
0.272000 -0.568407
0.273000 -0.572002
0.274000 -0.574781
0.275000 -0.576732
0.276000 -0.577845
0.277000 -0.578107
0.278000 -0.577510
0.279000 -0.576047
0.280000 -0.573710
0.281000 -0.570494
0.282000 -0.566396
0.283000 -0.561413
0.284000 -0.555544
0.285000 -0.548789
0.286000 -0.541150
0.287000 -0.532630
0.288000 -0.523235
0.289000 -0.512969
0.290000 -0.501840
0.291000 -0.489859
0.292000 -0.477034
0.293000 -0.463378
0.294000 -0.448904
0.295000 -0.433626
0.296000 -0.417562
0.297000 -0.400728
0.298000 -0.383144
0.299000 -0.364829
0.300000 -0.345805
0.301000 -0.326096
0.302000 -0.305725
0.303000 -0.284718
0.304000 -0.263101
0.305000 -0.240902
0.306000 -0.218151
0.307000 -0.194878
0.308000 -0.171113
0.309000 -0.146890
0.310000 -0.122240
0.311000 -0.097199
0.312000 -0.071801
0.313000 -0.046083
0.314000 -0.020080
0.314999 0.006169
0.315999 0.032626
0.316999 0.059253
0.317999 0.086011
0.318999 0.112860
0.319999 0.139759
0.320999 0.166667
0.321999 0.193545
0.322999 0.220351
0.323999 0.247042
0.324999 0.273579
0.325999 0.299919
0.326999 0.326021
0.327999 0.351844
0.328999 0.377345
0.329999 0.402484
0.330999 0.427221
0.331999 0.451514
0.332999 0.475324
0.333999 0.498610
0.334999 0.521335
0.335999 0.543459
0.336999 0.564945
0.337999 0.585756
0.338999 0.605856
0.339999 0.625209
0.340999 0.643781
0.341999 0.661539
0.342999 0.678451
0.343999 0.694484
0.344999 0.709610
0.345999 0.723799
0.346999 0.737024
0.347999 0.749258
0.348999 0.760478
0.349999 0.770659
0.350999 0.779779
0.351999 0.787819
0.352999 0.794760
0.353999 0.800583
0.354999 0.805275
0.355999 0.808819
0.356999 0.811206
0.357999 0.812423
0.358999 0.812463
0.359999 0.811318
0.360999 0.808984
0.361999 0.805456
0.362999 0.800733
0.363999 0.794816
0.364999 0.787707
0.365999 0.779410
0.366999 0.769931
0.367999 0.759277
0.368999 0.747458
0.369999 0.734487
0.370999 0.720375
0.371999 0.705138
0.372999 0.688794
0.373999 0.671360
0.374999 0.652858
0.375999 0.633310
0.376999 0.612739
0.377999 0.591172
0.378999 0.568636
0.379999 0.545159
0.380999 0.520773
0.381999 0.495510
0.382999 0.469402
0.383999 0.442486
0.384999 0.414798
0.385999 0.386376
0.386999 0.357258
0.387999 0.327486
0.388999 0.297100
0.389999 0.266144
0.390999 0.234661
0.391998 0.202696
0.392998 0.170295
0.393998 0.137504
0.394998 0.104371
0.395998 0.070944
0.396998 0.037271
0.397998 0.003402
0.398998 -0.030614
0.399998 -0.064726
0.400998 -0.098884
0.401998 -0.133037
0.402998 -0.167133
0.403998 -0.201123
0.404998 -0.234953
0.405998 -0.268575
0.406998 -0.301936
0.407998 -0.334986
0.408998 -0.367675
0.409998 -0.399951
0.410998 -0.431767
0.411998 -0.463072
0.412998 -0.493819
0.413998 -0.523959
0.414998 -0.553445
0.415998 -0.582232
0.416998 -0.610274
0.417998 -0.637527
0.418998 -0.663948
0.419998 -0.689494
0.420998 -0.714125
0.421998 -0.737802
0.422998 -0.760485
0.423998 -0.782139
0.424998 -0.802728
0.425998 -0.822218
0.426998 -0.840578
0.427998 -0.857775
0.428998 -0.873782
0.429998 -0.888572
0.430998 -0.902118
0.431998 -0.914398
0.432998 -0.925389
0.433998 -0.935073
0.434998 -0.943430
0.435998 -0.950446
0.436998 -0.956107
0.437998 -0.960400
0.438998 -0.963317
0.439998 -0.964849
0.440998 -0.964990
0.441998 -0.963738
0.442998 -0.961091
0.443998 -0.957050
0.444998 -0.951618
0.445998 -0.944800
0.446998 -0.936602
0.447998 -0.927035
0.448998 -0.916109
0.449998 -0.903839
0.450998 -0.890239
0.451998 -0.875328
0.452998 -0.859124
0.453998 -0.841651
0.454998 -0.822930
0.455998 -0.802988
0.456998 -0.781853
0.457998 -0.759553
0.458998 -0.736120
0.459998 -0.711586
0.460998 -0.685987
0.461998 -0.659359
0.462998 -0.631739
0.463998 -0.603167
0.464998 -0.573684
0.465998 -0.543333
0.466998 -0.512157
0.467998 -0.480202
0.468998 -0.447514
0.469997 -0.414140
0.470997 -0.380129
0.471997 -0.345531
0.472997 -0.310396
0.473997 -0.274776
0.474997 -0.238724
0.475997 -0.202291
0.476997 -0.165532
0.477997 -0.128501
0.478997 -0.091253
0.479997 -0.053842
0.480997 -0.016324
0.481997 0.021246
0.482997 0.058812
0.483997 0.096318
0.484997 0.133710
0.485997 0.170931
0.486997 0.207926
0.487997 0.244640
0.488997 0.281019
0.489997 0.317009
0.490997 0.352557
0.491997 0.387609
0.492997 0.422113
0.493997 0.456019
0.494997 0.489276
0.495997 0.521834
0.496997 0.553646
0.497997 0.584664
0.498997 0.614841
0.499997 0.644134
0.500997 0.672500
0.501997 0.699895
0.502997 0.726280
0.503997 0.751615
0.504997 0.775863
0.505997 0.798989
0.506997 0.820958
0.507997 0.841739
0.508997 0.861300
0.509997 0.879614
0.510997 0.896653
0.511997 0.912394
0.512997 0.926813
0.513997 0.939889
0.514997 0.951604
0.515997 0.961941
0.516997 0.970887
0.517997 0.978427
0.518997 0.984553
0.519997 0.989257
0.520997 0.992531
0.521997 0.994374
0.522997 0.994782
0.523997 0.993757
0.524997 0.991302
0.525997 0.987421
0.526997 0.982122
0.527997 0.975414
0.528997 0.967309
0.529997 0.957819
0.530997 0.946961
0.531997 0.934753
0.532997 0.921213
0.533997 0.906364
0.534997 0.890229
0.535997 0.872835
0.536997 0.854208
0.537997 0.834378
0.538997 0.813376
0.539997 0.791234
0.540997 0.767988
0.541997 0.743673
0.542997 0.718328
0.543997 0.691991
0.544997 0.664703
0.545997 0.636506
0.546997 0.607444
0.547997 0.577561
0.548997 0.546902
0.549996 0.515516
0.550996 0.483449
0.551996 0.450751
0.552996 0.417470
0.553996 0.383659
0.554996 0.349367
0.555996 0.314647
0.556996 0.279551
0.557996 0.244132
0.558996 0.208444
0.559996 0.172538
0.560996 0.136470
0.561996 0.100293
0.562996 0.064061
0.563996 0.027828
0.564996 -0.008352
0.565996 -0.044426
0.566996 -0.080341
0.567996 -0.116044
0.568996 -0.151483
0.569996 -0.186605
0.570996 -0.221360
0.571996 -0.255696
0.572996 -0.289565
0.573996 -0.322917
0.574996 -0.355705
0.575996 -0.387880
0.576996 -0.419398
0.577996 -0.450214
0.578996 -0.480284
0.579996 -0.509565
0.580996 -0.538018
0.581996 -0.565601
0.582996 -0.592277
0.583996 -0.618010
0.584996 -0.642764
0.585996 -0.666505
0.586996 -0.689203
0.587996 -0.710826
0.588996 -0.731347
0.589996 -0.750738
0.590996 -0.768976
0.591996 -0.786036
0.592996 -0.801898
0.593996 -0.816543
0.594996 -0.829954
0.595996 -0.842114
0.596996 -0.853012
0.597996 -0.862635
0.598996 -0.870974
0.599996 -0.878021
0.600996 -0.883773
0.601996 -0.888224
0.602996 -0.891374
0.603996 -0.893223
0.604996 -0.893774
0.605996 -0.893032
0.606996 -0.891002
0.607996 -0.887695
0.608996 -0.883119
0.609996 -0.877287
0.610996 -0.870215
0.611996 -0.861916
0.612996 -0.852410
0.613996 -0.841716
0.614996 -0.829856
0.615996 -0.816852
0.616996 -0.802728
0.617996 -0.787513
0.618996 -0.771232
0.619996 -0.753917
0.620996 -0.735596
0.621996 -0.716304
0.622996 -0.696072
0.623996 -0.674937
0.624996 -0.652934
0.625996 -0.630100
0.626996 -0.606474
0.627995 -0.582095
0.628995 -0.557003
0.629995 -0.531239
0.630995 -0.504847
0.631995 -0.477867
0.632995 -0.450344
0.633995 -0.422323
0.634995 -0.393846
0.635995 -0.364960
0.636995 -0.335710
0.637995 -0.306142
0.638995 -0.276302
0.639995 -0.246236
0.640995 -0.215990
0.641995 -0.185611
0.642995 -0.155145
0.643995 -0.124637
0.644995 -0.094135
0.645995 -0.063684
0.646995 -0.033328
0.647995 -0.003113
0.648995 0.026916
0.649995 0.056716
0.650995 0.086244
0.651995 0.115457
0.652995 0.144312
0.653995 0.172770
0.654995 0.200789
0.655995 0.228331
0.656995 0.255357
0.657995 0.281831
0.658995 0.307715
0.659995 0.332975
0.660995 0.357577
0.661995 0.381489
0.662995 0.404679
0.663995 0.427117
0.664995 0.448775
0.665995 0.469625
0.666995 0.489642
0.667995 0.508801
0.668995 0.527080
0.669995 0.544458
0.670995 0.560913
0.671995 0.576430
0.672995 0.590990
0.673995 0.604579
0.674995 0.617184
0.675995 0.628792
0.676995 0.639395
0.677995 0.648982
0.678995 0.657548
0.679995 0.665088
0.680995 0.671598
0.681995 0.677075
0.682995 0.681521
0.683995 0.684935
0.684995 0.687322
0.685995 0.688685
0.686995 0.689032
0.687995 0.688369
0.688995 0.686705
0.689995 0.684052
0.690995 0.680422
0.691995 0.675828
0.692995 0.670285
0.693995 0.663809
0.694995 0.656419
0.695995 0.648133
0.696995 0.638972
0.697995 0.628957
0.698995 0.618110
0.699995 0.606456
0.700995 0.594019
0.701995 0.580826
0.702995 0.566902
0.703995 0.552276
0.704994 0.536976
0.705994 0.521033
0.706994 0.504475
0.707994 0.487334
0.708994 0.469642
0.709994 0.451431
0.710994 0.432732
0.711994 0.413581
0.712994 0.394010
0.713994 0.374053
0.714994 0.353744
0.715994 0.333118
0.716994 0.312210
0.717994 0.291055
0.718994 0.269686
0.719994 0.248141
0.720994 0.226452
0.721994 0.204655
0.722994 0.182785
0.723994 0.160875
0.724994 0.138961
0.725994 0.117076
0.726994 0.095252
0.727994 0.073524
0.728994 0.051924
0.729994 0.030484
0.730994 0.009234
0.731994 -0.011793
0.732994 -0.032569
0.733994 -0.053063
0.734994 -0.073247
0.735994 -0.093092
0.736994 -0.112573
0.737994 -0.131663
0.738994 -0.150336
0.739994 -0.168569
0.740994 -0.186338
0.741994 -0.203620
0.742994 -0.220394
0.743994 -0.236641
0.744994 -0.252340
0.745994 -0.267474
0.746994 -0.282025
0.747994 -0.295979
0.748994 -0.309319
0.749994 -0.322033
0.750994 -0.334109
0.751994 -0.345534
0.752994 -0.356300
0.753994 -0.366397
0.754994 -0.375817
0.755994 -0.384554
0.756994 -0.392604
0.757994 -0.399961
0.758994 -0.406623
0.759994 -0.412588
0.760994 -0.417856
0.761994 -0.422428
0.762994 -0.426304
0.763994 -0.429489
0.764994 -0.431985
0.765994 -0.433799
0.766994 -0.434935
0.767994 -0.435402
0.768994 -0.435207
0.769994 -0.434360
0.770994 -0.432871
0.771994 -0.430751
0.772994 -0.428011
0.773994 -0.424665
0.774994 -0.420727
0.775994 -0.416210
0.776994 -0.411131
0.777994 -0.405505
0.778994 -0.399348
0.779994 -0.392680
0.780994 -0.385516
0.781994 -0.377876
0.782993 -0.369780
0.783993 -0.361246
0.784993 -0.352296
0.785993 -0.342948
0.786993 -0.333225
0.787993 -0.323148
0.788993 -0.312738
0.789993 -0.302017
0.790993 -0.291007
0.791993 -0.279731
0.792993 -0.268211
0.793993 -0.256469
0.794993 -0.244527
0.795993 -0.232409
0.796993 -0.220137
0.797993 -0.207733
0.798993 -0.195220
0.799993 -0.182620
0.800993 -0.169955
0.801993 -0.157246
0.802993 -0.144516
0.803993 -0.131785
0.804993 -0.119074
0.805993 -0.106405
0.806993 -0.093797
0.807993 -0.081270
0.808993 -0.068843
0.809993 -0.056536
0.810993 -0.044366
0.811993 -0.032352
0.812993 -0.020510
0.813993 -0.008858
0.814993 0.002589
0.815993 0.013815
0.816993 0.024805
0.817993 0.035545
0.818993 0.046022
0.819993 0.056223
0.820993 0.066135
0.821993 0.075747
0.822993 0.085049
0.823993 0.094030
0.824993 0.102682
0.825993 0.110996
0.826993 0.118964
0.827993 0.126580
0.828993 0.133836
0.829993 0.140728
0.830993 0.147251
0.831993 0.153401
0.832993 0.159175
0.833993 0.164570
0.834993 0.169585
0.835993 0.174218
0.836993 0.178469
0.837993 0.182339
0.838993 0.185829
0.839993 0.188941
0.840993 0.191676
0.841993 0.194039
0.842993 0.196032
0.843993 0.197660
0.844993 0.198929
0.845993 0.199843
0.846993 0.200408
0.847993 0.200632
0.848993 0.200521
0.849993 0.200082
0.850993 0.199325
0.851993 0.198257
0.852993 0.196887
0.853993 0.195225
0.854993 0.193280
0.855993 0.191062
0.856993 0.188582
0.857993 0.185850
0.858993 0.182878
0.859993 0.179675
0.860992 0.176254
0.861992 0.172626
0.862992 0.168803
0.863992 0.164797
0.864992 0.160619
0.865992 0.156281
0.866992 0.151796
0.867992 0.147175
0.868992 0.142431
0.869992 0.137576
0.870992 0.132622
0.871992 0.127580
0.872992 0.122463
0.873992 0.117282
0.874992 0.112049
0.875992 0.106775
0.876992 0.101472
0.877992 0.096150
0.878992 0.090821
0.879992 0.085495
0.880992 0.080182
0.881992 0.074893
0.882992 0.069636
0.883992 0.064423
0.884992 0.059261
0.885992 0.054160
0.886992 0.049129
0.887992 0.044174
0.888992 0.039305
0.889992 0.034528
0.890992 0.029850
0.891992 0.025279
0.892992 0.020820
0.893992 0.016479
0.894992 0.012262
0.895992 0.008173
0.896992 0.004217
0.897992 0.000399
0.898992 -0.003279
0.899992 -0.006811
0.900992 -0.010197
0.901992 -0.013432
0.902992 -0.016516
0.903992 -0.019446
0.904992 -0.022220
0.905992 -0.024839
0.906992 -0.027301
0.907992 -0.029606
0.908992 -0.031755
0.909992 -0.033747
0.910992 -0.035585
0.911992 -0.037269
0.912992 -0.038800
0.913992 -0.040181
0.914992 -0.041414
0.915992 -0.042502
0.916992 -0.043446
0.917992 -0.044250
0.918992 -0.044918
0.919992 -0.045453
0.920992 -0.045859
0.921992 -0.046139
0.922992 -0.046298
0.923992 -0.046341
0.924992 -0.046271
0.925992 -0.046093
0.926992 -0.045813
0.927992 -0.045434
0.928992 -0.044963
0.929992 -0.044403
0.930992 -0.043761
0.931992 -0.043041
0.932992 -0.042249
0.933992 -0.041390
0.934992 -0.040469
0.935992 -0.039491
0.936992 -0.038463
0.937991 -0.037388
0.938991 -0.036272
0.939991 -0.035120
0.940991 -0.033938
0.941991 -0.032730
0.942991 -0.031500
0.943991 -0.030254
0.944991 -0.028997
0.945991 -0.027732
0.946991 -0.026464
0.947991 -0.025197
0.948991 -0.023936
0.949991 -0.022683
0.950991 -0.021444
0.951991 -0.020220
0.952991 -0.019016
0.953991 -0.017834
0.954991 -0.016678
0.955991 -0.015550
0.956991 -0.014452
0.957991 -0.013387
0.958991 -0.012357
0.959991 -0.011364
0.960991 -0.010409
0.961991 -0.009494
0.962991 -0.008620
0.963991 -0.007788
0.964991 -0.006998
0.965991 -0.006252
0.966991 -0.005550
0.967991 -0.004891
0.968991 -0.004276
0.969991 -0.003705
0.970991 -0.003177
0.971991 -0.002691
0.972991 -0.002247
0.973991 -0.001844
0.974991 -0.001481
0.975991 -0.001157
0.976991 -0.000869
0.977991 -0.000617
0.978991 -0.000400
0.979991 -0.000214
0.980991 -0.000059
0.981991 0.000067
0.982991 0.000168
0.983991 0.000243
0.984991 0.000297
0.985991 0.000331
0.986991 0.000347
0.987991 0.000348
0.988991 0.000336
0.989991 0.000313
0.990991 0.000282
0.991991 0.000245
0.992991 0.000205
0.993991 0.000162
0.994991 0.000121
0.995991 0.000083
0.996991 0.000049
0.997991 0.000023
0.998991 0.000006
0.999991 0.000000
